Prior Wählen
…
Beispiel und Kleiner Trick

Der einfachste Weg, den Prior für ein Slope zu konstruieren, besteht
darin, ein einfaches NICHT-Bayesianisches Modell zu konstruieren. Nehmen
wir z.B. den df_pupil Datensatz, den wir behandelt
haben.

data("df_pupil")
(df_pupil <- df_pupil %>%
  mutate(c_load = load - mean(load)))

## # A tibble: 41 × 5
##     subj trial  load p_size c_load
##    <int> <int> <int>  <dbl>  <dbl>
##  1   701     1     2  1021. -0.439
##  2   701     2     1   951. -1.44 
##  3   701     3     5  1064.  2.56 
##  4   701     4     4   913.  1.56 
##  5   701     5     0   603. -2.44 
##  6   701     6     3   826.  0.561
##  7   701     7     0   464. -2.44 
##  8   701     8     4   758.  1.56 
##  9   701     9     2   733. -0.439
## 10   701    10     3   591.  0.561
## # ℹ 31 more rows
…
